{"frames": {

"1":
{
	"frame": {"x":1,"y":1847,"w":120,"h":120},
	"rotated": false,
	"trimmed": false,
	"spriteSourceSize": {"x":0,"y":0,"w":120,"h":120},
	"sourceSize": {"w":120,"h":120}
},
"2":
{
	"frame": {"x":123,"y":1847,"w":120,"h":120},
	"rotated": false,
	"trimmed": false,
	"spriteSourceSize": {"x":0,"y":0,"w":120,"h":120},
	"sourceSize": {"w":120,"h":120}
},
"4":
{
	"frame": {"x":245,"y":1847,"w":120,"h":120},
	"rotated": false,
	"trimmed": false,
	"spriteSourceSize": {"x":0,"y":0,"w":120,"h":120},
	"sourceSize": {"w":120,"h":120}
},
"5":
{
	"frame": {"x":367,"y":1847,"w":120,"h":120},
	"rotated": false,
	"trimmed": false,
	"spriteSourceSize": {"x":0,"y":0,"w":120,"h":120},
	"sourceSize": {"w":120,"h":120}
},
"flake1":
{
	"frame": {"x":609,"y":1603,"w":180,"h":180},
	"rotated": false,
	"trimmed": false,
	"spriteSourceSize": {"x":0,"y":0,"w":180,"h":180},
	"sourceSize": {"w":180,"h":180}
},
"flake2":
{
	"frame": {"x":904,"y":193,"w":180,"h":180},
	"rotated": false,
	"trimmed": false,
	"spriteSourceSize": {"x":0,"y":0,"w":180,"h":180},
	"sourceSize": {"w":180,"h":180}
},
"flake3":
{
	"frame": {"x":791,"y":1603,"w":180,"h":180},
	"rotated": false,
	"trimmed": false,
	"spriteSourceSize": {"x":0,"y":0,"w":180,"h":180},
	"sourceSize": {"w":180,"h":180}
},
"flake4":
{
	"frame": {"x":904,"y":375,"w":180,"h":180},
	"rotated": false,
	"trimmed": false,
	"spriteSourceSize": {"x":0,"y":0,"w":180,"h":180},
	"sourceSize": {"w":180,"h":180}
},
"flake5":
{
	"frame": {"x":973,"y":1603,"w":180,"h":180},
	"rotated": false,
	"trimmed": false,
	"spriteSourceSize": {"x":0,"y":0,"w":180,"h":180},
	"sourceSize": {"w":180,"h":180}
},
"flake6":
{
	"frame": {"x":913,"y":996,"w":180,"h":180},
	"rotated": false,
	"trimmed": false,
	"spriteSourceSize": {"x":0,"y":0,"w":180,"h":180},
	"sourceSize": {"w":180,"h":180}
},
"flake7":
{
	"frame": {"x":609,"y":1785,"w":180,"h":180},
	"rotated": false,
	"trimmed": false,
	"spriteSourceSize": {"x":0,"y":0,"w":180,"h":180},
	"sourceSize": {"w":180,"h":180}
},
"flake8":
{
	"frame": {"x":791,"y":1785,"w":180,"h":180},
	"rotated": false,
	"trimmed": false,
	"spriteSourceSize": {"x":0,"y":0,"w":180,"h":180},
	"sourceSize": {"w":180,"h":180}
},
"flake9":
{
	"frame": {"x":973,"y":1785,"w":180,"h":180},
	"rotated": false,
	"trimmed": false,
	"spriteSourceSize": {"x":0,"y":0,"w":180,"h":180},
	"sourceSize": {"w":180,"h":180}
},
"gift1":
{
	"frame": {"x":913,"y":557,"w":128,"h":224},
	"rotated": false,
	"trimmed": true,
	"spriteSourceSize": {"x":36,"y":13,"w":128,"h":224},
	"sourceSize": {"w":200,"h":250}
},
"gift2":
{
	"frame": {"x":913,"y":783,"w":140,"h":211},
	"rotated": false,
	"trimmed": true,
	"spriteSourceSize": {"x":30,"y":19,"w":140,"h":211},
	"sourceSize": {"w":200,"h":250}
},
"gift3":
{
	"frame": {"x":904,"y":1,"w":196,"h":190},
	"rotated": false,
	"trimmed": true,
	"spriteSourceSize": {"x":2,"y":30,"w":196,"h":190},
	"sourceSize": {"w":200,"h":250}
},
"gift4":
{
	"frame": {"x":1078,"y":1178,"w":95,"h":236},
	"rotated": false,
	"trimmed": true,
	"spriteSourceSize": {"x":52,"y":7,"w":95,"h":236},
	"sourceSize": {"w":200,"h":250}
},
"light1":
{
	"frame": {"x":1,"y":643,"w":302,"h":600},
	"rotated": false,
	"trimmed": false,
	"spriteSourceSize": {"x":0,"y":0,"w":302,"h":600},
	"sourceSize": {"w":302,"h":600}
},
"light2":
{
	"frame": {"x":600,"y":1,"w":302,"h":600},
	"rotated": false,
	"trimmed": false,
	"spriteSourceSize": {"x":0,"y":0,"w":302,"h":600},
	"sourceSize": {"w":302,"h":600}
},
"light3":
{
	"frame": {"x":1,"y":1245,"w":302,"h":600},
	"rotated": false,
	"trimmed": false,
	"spriteSourceSize": {"x":0,"y":0,"w":302,"h":600},
	"sourceSize": {"w":302,"h":600}
},
"light4":
{
	"frame": {"x":305,"y":643,"w":302,"h":600},
	"rotated": false,
	"trimmed": false,
	"spriteSourceSize": {"x":0,"y":0,"w":302,"h":600},
	"sourceSize": {"w":302,"h":600}
},
"light5":
{
	"frame": {"x":305,"y":1245,"w":302,"h":600},
	"rotated": false,
	"trimmed": false,
	"spriteSourceSize": {"x":0,"y":0,"w":302,"h":600},
	"sourceSize": {"w":302,"h":600}
},
"light6":
{
	"frame": {"x":609,"y":603,"w":302,"h":600},
	"rotated": false,
	"trimmed": false,
	"spriteSourceSize": {"x":0,"y":0,"w":302,"h":600},
	"sourceSize": {"w":302,"h":600}
},
"merry":
{
	"frame": {"x":609,"y":1205,"w":467,"h":244},
	"rotated": false,
	"trimmed": false,
	"spriteSourceSize": {"x":0,"y":0,"w":467,"h":244},
	"sourceSize": {"w":467,"h":244}
},
"santa":
{
	"frame": {"x":609,"y":1451,"w":565,"h":150},
	"rotated": false,
	"trimmed": false,
	"spriteSourceSize": {"x":0,"y":0,"w":565,"h":150},
	"sourceSize": {"w":565,"h":150}
},
"stocking1":
{
	"frame": {"x":1043,"y":557,"w":104,"h":142},
	"rotated": false,
	"trimmed": false,
	"spriteSourceSize": {"x":0,"y":0,"w":104,"h":142},
	"sourceSize": {"w":104,"h":142}
},
"stocking2":
{
	"frame": {"x":1055,"y":701,"w":104,"h":142},
	"rotated": false,
	"trimmed": false,
	"spriteSourceSize": {"x":0,"y":0,"w":104,"h":142},
	"sourceSize": {"w":104,"h":142}
},
"stocking3":
{
	"frame": {"x":1055,"y":845,"w":104,"h":142},
	"rotated": false,
	"trimmed": false,
	"spriteSourceSize": {"x":0,"y":0,"w":104,"h":142},
	"sourceSize": {"w":104,"h":142}
},
"tree":
{
	"frame": {"x":1,"y":1,"w":597,"h":640},
	"rotated": false,
	"trimmed": false,
	"spriteSourceSize": {"x":0,"y":0,"w":597,"h":640},
	"sourceSize": {"w":597,"h":640}
}},
"meta": {
	"app": "https://www.codeandweb.com/texturepacker",
	"version": "1.0",
	"image": "controller-0.png",
	"format": "RGBA8888",
	"size": {"w":1175,"h":1968},
	"scale": "1",
	"smartupdate": "$TexturePacker:SmartUpdate:d316ede9b3f0072589eb475a62da6379:8638f8391134d476c534807baef527d6:a74d375bcf90dbadbe868311f8bc5f61$"
}
}
