{"frames": {

"backing":
{
	"frame": {"x":600,"y":603,"w":1,"h":1},
	"rotated": false,
	"trimmed": false,
	"spriteSourceSize": {"x":0,"y":0,"w":1,"h":1},
	"sourceSize": {"w":1,"h":1}
},
"flake1":
{
	"frame": {"x":609,"y":1451,"w":180,"h":180},
	"rotated": false,
	"trimmed": false,
	"spriteSourceSize": {"x":0,"y":0,"w":180,"h":180},
	"sourceSize": {"w":180,"h":180}
},
"flake2":
{
	"frame": {"x":904,"y":193,"w":180,"h":180},
	"rotated": false,
	"trimmed": false,
	"spriteSourceSize": {"x":0,"y":0,"w":180,"h":180},
	"sourceSize": {"w":180,"h":180}
},
"flake3":
{
	"frame": {"x":609,"y":1633,"w":180,"h":180},
	"rotated": false,
	"trimmed": false,
	"spriteSourceSize": {"x":0,"y":0,"w":180,"h":180},
	"sourceSize": {"w":180,"h":180}
},
"flake4":
{
	"frame": {"x":791,"y":1451,"w":180,"h":180},
	"rotated": false,
	"trimmed": false,
	"spriteSourceSize": {"x":0,"y":0,"w":180,"h":180},
	"sourceSize": {"w":180,"h":180}
},
"flake5":
{
	"frame": {"x":904,"y":375,"w":180,"h":180},
	"rotated": false,
	"trimmed": false,
	"spriteSourceSize": {"x":0,"y":0,"w":180,"h":180},
	"sourceSize": {"w":180,"h":180}
},
"flake6":
{
	"frame": {"x":791,"y":1633,"w":180,"h":180},
	"rotated": false,
	"trimmed": false,
	"spriteSourceSize": {"x":0,"y":0,"w":180,"h":180},
	"sourceSize": {"w":180,"h":180}
},
"flake7":
{
	"frame": {"x":913,"y":996,"w":180,"h":180},
	"rotated": false,
	"trimmed": false,
	"spriteSourceSize": {"x":0,"y":0,"w":180,"h":180},
	"sourceSize": {"w":180,"h":180}
},
"flake8":
{
	"frame": {"x":609,"y":1815,"w":180,"h":180},
	"rotated": false,
	"trimmed": false,
	"spriteSourceSize": {"x":0,"y":0,"w":180,"h":180},
	"sourceSize": {"w":180,"h":180}
},
"flake9":
{
	"frame": {"x":791,"y":1815,"w":180,"h":180},
	"rotated": false,
	"trimmed": false,
	"spriteSourceSize": {"x":0,"y":0,"w":180,"h":180},
	"sourceSize": {"w":180,"h":180}
},
"gift1":
{
	"frame": {"x":913,"y":557,"w":128,"h":224},
	"rotated": false,
	"trimmed": true,
	"spriteSourceSize": {"x":36,"y":13,"w":128,"h":224},
	"sourceSize": {"w":200,"h":250}
},
"gift2":
{
	"frame": {"x":913,"y":783,"w":140,"h":211},
	"rotated": false,
	"trimmed": true,
	"spriteSourceSize": {"x":30,"y":19,"w":140,"h":211},
	"sourceSize": {"w":200,"h":250}
},
"gift3":
{
	"frame": {"x":904,"y":1,"w":196,"h":190},
	"rotated": false,
	"trimmed": true,
	"spriteSourceSize": {"x":2,"y":30,"w":196,"h":190},
	"sourceSize": {"w":200,"h":250}
},
"gift4":
{
	"frame": {"x":973,"y":1451,"w":95,"h":236},
	"rotated": false,
	"trimmed": true,
	"spriteSourceSize": {"x":52,"y":7,"w":95,"h":236},
	"sourceSize": {"w":200,"h":250}
},
"light1":
{
	"frame": {"x":1,"y":643,"w":302,"h":600},
	"rotated": false,
	"trimmed": false,
	"spriteSourceSize": {"x":0,"y":0,"w":302,"h":600},
	"sourceSize": {"w":302,"h":600}
},
"light2":
{
	"frame": {"x":600,"y":1,"w":302,"h":600},
	"rotated": false,
	"trimmed": false,
	"spriteSourceSize": {"x":0,"y":0,"w":302,"h":600},
	"sourceSize": {"w":302,"h":600}
},
"light3":
{
	"frame": {"x":1,"y":1245,"w":302,"h":600},
	"rotated": false,
	"trimmed": false,
	"spriteSourceSize": {"x":0,"y":0,"w":302,"h":600},
	"sourceSize": {"w":302,"h":600}
},
"light4":
{
	"frame": {"x":305,"y":643,"w":302,"h":600},
	"rotated": false,
	"trimmed": false,
	"spriteSourceSize": {"x":0,"y":0,"w":302,"h":600},
	"sourceSize": {"w":302,"h":600}
},
"light5":
{
	"frame": {"x":305,"y":1245,"w":302,"h":600},
	"rotated": false,
	"trimmed": false,
	"spriteSourceSize": {"x":0,"y":0,"w":302,"h":600},
	"sourceSize": {"w":302,"h":600}
},
"light6":
{
	"frame": {"x":609,"y":603,"w":302,"h":600},
	"rotated": false,
	"trimmed": false,
	"spriteSourceSize": {"x":0,"y":0,"w":302,"h":600},
	"sourceSize": {"w":302,"h":600}
},
"merry":
{
	"frame": {"x":609,"y":1205,"w":467,"h":244},
	"rotated": false,
	"trimmed": false,
	"spriteSourceSize": {"x":0,"y":0,"w":467,"h":244},
	"sourceSize": {"w":467,"h":244}
},
"santa":
{
	"frame": {"x":1,"y":1847,"w":565,"h":150},
	"rotated": false,
	"trimmed": false,
	"spriteSourceSize": {"x":0,"y":0,"w":565,"h":150},
	"sourceSize": {"w":565,"h":150}
},
"stocking1":
{
	"frame": {"x":1043,"y":557,"w":104,"h":142},
	"rotated": false,
	"trimmed": false,
	"spriteSourceSize": {"x":0,"y":0,"w":104,"h":142},
	"sourceSize": {"w":104,"h":142}
},
"stocking2":
{
	"frame": {"x":973,"y":1689,"w":104,"h":142},
	"rotated": false,
	"trimmed": false,
	"spriteSourceSize": {"x":0,"y":0,"w":104,"h":142},
	"sourceSize": {"w":104,"h":142}
},
"stocking3":
{
	"frame": {"x":973,"y":1833,"w":104,"h":142},
	"rotated": false,
	"trimmed": false,
	"spriteSourceSize": {"x":0,"y":0,"w":104,"h":142},
	"sourceSize": {"w":104,"h":142}
},
"systembuttons0":
{
	"frame": {"x":1043,"y":742,"w":35,"h":39},
	"rotated": false,
	"trimmed": true,
	"spriteSourceSize": {"x":9,"y":9,"w":35,"h":39},
	"sourceSize": {"w":50,"h":50}
},
"systembuttons1":
{
	"frame": {"x":568,"y":1847,"w":35,"h":39},
	"rotated": false,
	"trimmed": true,
	"spriteSourceSize": {"x":9,"y":9,"w":35,"h":39},
	"sourceSize": {"w":50,"h":50}
},
"systembuttons2":
{
	"frame": {"x":1102,"y":1,"w":38,"h":39},
	"rotated": false,
	"trimmed": true,
	"spriteSourceSize": {"x":9,"y":9,"w":38,"h":39},
	"sourceSize": {"w":50,"h":50}
},
"systembuttons3":
{
	"frame": {"x":1043,"y":701,"w":38,"h":39},
	"rotated": false,
	"trimmed": true,
	"spriteSourceSize": {"x":9,"y":9,"w":38,"h":39},
	"sourceSize": {"w":50,"h":50}
},
"tree":
{
	"frame": {"x":1,"y":1,"w":597,"h":640},
	"rotated": false,
	"trimmed": false,
	"spriteSourceSize": {"x":0,"y":0,"w":597,"h":640},
	"sourceSize": {"w":597,"h":640}
}},
"meta": {
	"app": "https://www.codeandweb.com/texturepacker",
	"version": "1.0",
	"image": "sprites-0.png",
	"format": "RGBA8888",
	"size": {"w":1148,"h":1998},
	"scale": "1",
	"smartupdate": "$TexturePacker:SmartUpdate:16c7a1729e6dcacd7b847a25ae481df7:dfc32820b1af3fbfc7226f74b8752ccf:7921bf998741302c2028590beb4e1a86$"
}
}
